C:\Users\josemorjuelao\Documents\automatizacion Lientes\registroestudiante\src\test\java\interrapidisimo\devops\wpf\object\CreateAdmisionObject.java
C:\Users\josemorjuelao\Documents\automatizacion Lientes\registroestudiante\src\test\java\interrapidisimo\devops\wpf\steps\CreateAdmisionSteps.java
C:\Users\josemorjuelao\Documents\automatizacion Lientes\registroestudiante\src\test\java\interrapidisimo\devops\wpf\definitions\CreateAdmisionDefinitions.java
C:\Users\josemorjuelao\Documents\automatizacion Lientes\registroestudiante\src\test\java\interrapidisimo\devops\wpf\Base.java
C:\Users\josemorjuelao\Documents\automatizacion Lientes\registroestudiante\src\test\java\interrapidisimo\devops\wpf\RunnerFeatures.java
